module gitlab.com/go_server

go 1.18

require (
	github.com/fatih/color v1.15.0
	github.com/go-chi/chi/v5 v5.0.8
	github.com/go-chi/render v1.0.2
	github.com/go-playground/validator/v10 v10.14.1
	github.com/ilyakaznacheev/cleanenv v1.4.2
	github.com/mattn/go-sqlite3 v1.14.17
	github.com/stretchr/testify v1.8.2
	golang.org/x/exp v0.0.0-20230626212559-97b1e661b5df
)

require (
	github.com/BurntSushi/toml v1.1.0 // indirect
	github.com/ajg/form v1.5.1 // indirect
	github.com/davecgh/go-spew v1.1.1 // indirect
	github.com/gabriel-vasile/mimetype v1.4.2 // indirect
	github.com/go-playground/locales v0.14.1 // indirect
	github.com/go-playground/universal-translator v0.18.1 // indirect
	github.com/joho/godotenv v1.4.0 // indirect
	github.com/leodido/go-urn v1.2.4 // indirect
	github.com/mattn/go-colorable v0.1.13 // indirect
	github.com/mattn/go-isatty v0.0.17 // indirect
	github.com/pmezard/go-difflib v1.0.0 // indirect
	github.com/stretchr/objx v0.5.0 // indirect
	golang.org/x/crypto v0.7.0 // indirect
	golang.org/x/net v0.8.0 // indirect
	golang.org/x/sys v0.6.0 // indirect
	golang.org/x/text v0.8.0 // indirect
	gopkg.in/yaml.v3 v3.0.1 // indirect
	olympos.io/encoding/edn v0.0.0-20201019073823-d3554ca0b0a3 // indirect
)
